HENGKY WIDJAJA||06 Juli 1939||PEP||||||||
DWITRA GUNAWAN||05 Juni 1968||PEP||||||||
JULI||13 April 1979||PEP||||||||
DIAN KARTIKARINI||17 Maret 1970||PEP||||||||
MUSTAMIN BAKRI||11 November 1971||PEP||||||||
HADI CANDRA||01 Oktober 1977||PEP||||||||
ERMINA||28 Juni 1965||PEP||||||||
ZULKARNAIN||31 Desember 1962||PEP||||||||
DRS EDDY WIJAYA||18 Oktober 1953||PEP||||||||
RAJA MARZUNI||14 April 1970||PEP||||||||
RUMADI||01 Januari 1963||PEP||||||||
HARLINA||22 Juli 1982||PEP||||||||
HENIEL ELIA||06 Februari 1959||PEP||||||||
DESI SEPTIYANI||06 September 1988||PEP||||||||
ERNITA||14 Januari 1983||PEP||||||||
MUHAMMAD YUNUS||23 Maret 1952||PEP||||||||
DAENG AMHAR||16 Februari 1972||PEP||||||||
YAK BUN||13 Oktober 1974||PEP||||||||
ABIL HANAFI||13 Agustus 1975||PEP||||||||
HARDY YUNNARAGA||02 Desember 1956||PEP||||||||
JOHARIS IBRO||09 September 1974||PEP||||||||
EDISON MARUDUT MARSADAULI S||01 Maret 1964||PEP||||||||
MARTHA ANASTASIA||28 Juni 1962||PEP||||||||
LINDAWATI||03 November 1962||PEP||||||||
SENTOT SUSILO SH||14 Juni 1953||PEP||||||||
HENDRA ASMAN||27 Maret 1984||PEP||||||||
NGESTI YUNI SUPRAPTI||16 Juni 1964||PEP||||||||
JARMIN||19 Mei 1961||PEP||||||||
MOH TAUFIK||03 Januari 1957||PEP||||||||
WINNA CHANDRA||17 Mei 1964||PEP||||||||
SUYATI SALI||17 Juli 1961||PEP||||||||
YENTI TAMBUNAN||16 Desember 1975||PEP||||||||